
     Program EXX v.5.4.0 (svn rev. 12392M) starts on  7May2016 at 11:15:56 

     This program is part of the open-source Quantum ESPRESSO suite
     for quantum simulation of materials; please cite
         "P. Giannozzi et al., J. Phys.:Condens. Matter 21 395502 (2009);
          URL http://www.quantum-espresso.org", 
     in publications or presentations arising from this work. More details at
     http://www.quantum-espresso.org/quote

     Parallel version (MPI), running on     2 processors
     R & G space division:  proc/nbgrp/npool/nimage =       2

     Ultrasoft (Vanderbilt) Pseudopotentials

     Reading data from directory:
     /home/degironc/QE/SVN/AA/espresso/tempdir/Be-1.save

   Info: using nr1, nr2, nr3 values from input

   Info: using nr1, nr2, nr3 values from input

     IMPORTANT: XC functional enforced from input :
     Exchange-correlation      = SLA  PZ   NOGX NOGC ( 1  1  0  0 0 0)
     Any further DFT definition will be discarded
     Please, verify this is what you really want

               file Be.EXX-fhi.UPF: wavefunction(s)  3S renormalized

     Parallelization info
     --------------------
     sticks:   dense  smooth     PW     G-vecs:    dense   smooth      PW
     Min         358     358     88                 7180     7180     894
     Max         359     359     89                 7183     7183     897
     Sum         717     717    177                14363    14363    1791


     Some info on exchange and correlation energy

       xc energy (= ex + ec)     =    -0.72378189 Ry
                      !ex        =    -0.58253195 Ry
                      !ec        =    -0.14124994 Ry

       short-range corr. energy  =     0.06163050 Ry

     Only exx_fraction is set to 1.d0
     XC functional still not changed
     Exchange-correlation      = SLA  PZ   NOGX NOGC ( 1  1  0  0 0 0)
     EXX-fraction              =        1.00
EXX: grid of k+q points same as grid of k-points
     + Fock energy             =      -0.67899197 Ry =       -0.67899197 Ry 


     EXX          :     0.09s CPU         0.09s WALL

     EXX routines
     exx_grid     :      0.00s CPU      0.00s WALL (       1 calls)
     exxinit      :      0.01s CPU      0.01s WALL (       1 calls)

     Parallel routines
     fft_scatter  :      0.00s CPU      0.00s WALL (      38 calls)
