
     Program PWSCF v.6.0 (svn rev. 13079) starts on  6Feb2017 at 18: 5:10 

     This program is part of the open-source Quantum ESPRESSO suite
     for quantum simulation of materials; please cite
         "P. Giannozzi et al., J. Phys.:Condens. Matter 21 395502 (2009);
          URL http://www.quantum-espresso.org", 
     in publications or presentations arising from this work. More details at
     http://www.quantum-espresso.org/quote

     Parallel version (MPI), running on     8 processors
     R & G space division:  proc/nbgrp/npool/nimage =       8
     Waiting for input...
     Reading input from standard input
     Message from routine read_cards :
     DEPRECATED: no units specified in ATOMIC_POSITIONS card
     Message from routine read_cards :
     ATOMIC_POSITIONS: units set to alat

     Current dimensions of program PWSCF are:
     Max number of different atomic species (ntypx) = 10
     Max number of k-points (npk) =  40000
     Max angular momentum in pseudopotentials (lmaxx) =  3

     Subspace diagonalization in iterative solution of the eigenvalue problem:
     a serial algorithm will be used

     Message from routine kpoint_grid:
     ATTENTION: skip check of k-points equivalence
 
     Parallelization info
     --------------------
     sticks:   dense  smooth     PW     G-vecs:    dense   smooth      PW
     Min          43      43     13                  533      533      90
     Max          44      44     14                  536      536      91
     Sum         349     349    109                 4279     4279     725
 


     bravais-lattice index     =            2
     lattice parameter (alat)  =      10.2000  a.u.
     unit-cell volume          =     265.3020 (a.u.)^3
     number of atoms/cell      =            2
     number of atomic types    =            1
     number of electrons       =         8.00
     number of Kohn-Sham states=            4
     kinetic-energy cutoff     =      24.0000  Ry
     charge density cutoff     =      96.0000  Ry
     convergence threshold     =      1.0E-08
     mixing beta               =       0.7000
     number of iterations used =            8  plain     mixing
     Exchange-correlation      =  SLA  PZ   NOGX NOGC ( 1  1  0  0 0 0)

     celldm(1)=  10.200000  celldm(2)=   0.000000  celldm(3)=   0.000000
     celldm(4)=   0.000000  celldm(5)=   0.000000  celldm(6)=   0.000000

     crystal axes: (cart. coord. in units of alat)
               a(1) = (  -0.500000   0.000000   0.500000 )  
               a(2) = (   0.000000   0.500000   0.500000 )  
               a(3) = (  -0.500000   0.500000   0.000000 )  

     reciprocal axes: (cart. coord. in units 2 pi/alat)
               b(1) = ( -1.000000 -1.000000  1.000000 )  
               b(2) = (  1.000000  1.000000  1.000000 )  
               b(3) = ( -1.000000  1.000000 -1.000000 )  


     PseudoPot. # 1 for Si read from file:
     ../pseudo/Si.pz-vbc.UPF
     MD5 check sum: 6dfa03ddd5817404712e03e4d12deb78
     Pseudo is Norm-conserving, Zval =  4.0
     Generated by new atomic code, or converted to UPF format
     Using radial grid of  431 points,  2 beta functions with: 
                l(1) =   0
                l(2) =   1

     atomic species   valence    mass     pseudopotential
        Si             4.00    28.08600     Si( 1.00)

     No symmetry found



   Cartesian axes

     site n.     atom                  positions (alat units)
         1           Si  tau(   1) = (   0.0000000   0.0000000   0.0000000  )
         2           Si  tau(   2) = (   0.2500000   0.2500000   0.2500000  )

     number of k points=     8
                       cart. coord. in units 2pi/alat
        k(    1) = (  -0.2500000   0.2500000   0.2500000), wk =   0.2500000
        k(    2) = (   0.2500000  -0.2500000   0.7500000), wk =   0.2500000
        k(    3) = (  -0.7500000  -0.2500000  -0.2500000), wk =   0.2500000
        k(    4) = (  -0.2500000  -0.7500000   0.2500000), wk =   0.2500000
        k(    5) = (   0.2500000   0.7500000  -0.2500000), wk =   0.2500000
        k(    6) = (   0.7500000   0.2500000   0.2500000), wk =   0.2500000
        k(    7) = (  -0.2500000   0.2500000  -0.7500000), wk =   0.2500000
        k(    8) = (   0.2500000  -0.2500000  -0.2500000), wk =   0.2500000

     Dense  grid:     4279 G-vectors     FFT dimensions: (  24,  24,  24)

     Estimated max dynamical RAM per process >       0.40Mb

     Estimated total allocated dynamical RAM >       3.21Mb

     Initial potential from superposition of free atoms

     starting charge    7.99901, renormalised to    8.00000
     Starting wfc are    8 randomized atomic wfcs

     total cpu time spent up to now is        0.1 secs

     per-process dynamical memory:    14.3 Mb

     Self-consistent Calculation

     iteration #  1     ecut=    24.00 Ry     beta=0.70
     Davidson diagonalization with overlap
     ethr =  1.00E-02,  avg # of iterations =  2.0

     Threshold (ethr) on eigenvalues was too large:
     Diagonalizing with lowered threshold

     Davidson diagonalization with overlap
     ethr =  9.11E-04,  avg # of iterations =  1.0

     total cpu time spent up to now is        0.1 secs

     total energy              =     -15.83389581 Ry
     Harris-Foulkes estimate   =     -15.85808996 Ry
     estimated scf accuracy    <       0.07160575 Ry

     iteration #  2     ecut=    24.00 Ry     beta=0.70
     Davidson diagonalization with overlap
     ethr =  8.95E-04,  avg # of iterations =  1.0

     total cpu time spent up to now is        0.1 secs

     total energy              =     -15.83722906 Ry
     Harris-Foulkes estimate   =     -15.83761011 Ry
     estimated scf accuracy    <       0.00273678 Ry

     iteration #  3     ecut=    24.00 Ry     beta=0.70
     Davidson diagonalization with overlap
     ethr =  3.42E-05,  avg # of iterations =  2.0

     total cpu time spent up to now is        0.1 secs

     total energy              =     -15.83759140 Ry
     Harris-Foulkes estimate   =     -15.83761763 Ry
     estimated scf accuracy    <       0.00008093 Ry

     iteration #  4     ecut=    24.00 Ry     beta=0.70
     Davidson diagonalization with overlap
     ethr =  1.01E-06,  avg # of iterations =  2.4

     total cpu time spent up to now is        0.1 secs

     total energy              =     -15.83761929 Ry
     Harris-Foulkes estimate   =     -15.83762160 Ry
     estimated scf accuracy    <       0.00000474 Ry

     iteration #  5     ecut=    24.00 Ry     beta=0.70
     Davidson diagonalization with overlap
     ethr =  5.92E-08,  avg # of iterations =  2.1

     total cpu time spent up to now is        0.1 secs

     total energy              =     -15.83762017 Ry
     Harris-Foulkes estimate   =     -15.83762019 Ry
     estimated scf accuracy    <       0.00000008 Ry

     iteration #  6     ecut=    24.00 Ry     beta=0.70
     Davidson diagonalization with overlap
     ethr =  9.83E-10,  avg # of iterations =  2.4

     total cpu time spent up to now is        0.1 secs

     End of self-consistent calculation

          k =-0.2500 0.2500 0.2500 (   531 PWs)   bands (ev):

    -4.9816   2.3520   5.4990   5.4991

          k = 0.2500-0.2500 0.7500 (   529 PWs)   bands (ev):

    -3.0069  -0.1736   2.6929   4.0142

          k =-0.7500-0.2500-0.2500 (   529 PWs)   bands (ev):

    -3.0069  -0.1736   2.6929   4.0142

          k =-0.2500-0.7500 0.2500 (   529 PWs)   bands (ev):

    -3.0069  -0.1736   2.6929   4.0142

          k = 0.2500 0.7500-0.2500 (   529 PWs)   bands (ev):

    -3.0069  -0.1736   2.6929   4.0142

          k = 0.7500 0.2500 0.2500 (   529 PWs)   bands (ev):

    -3.0069  -0.1736   2.6929   4.0142

          k =-0.2500 0.2500-0.7500 (   529 PWs)   bands (ev):

    -3.0069  -0.1736   2.6929   4.0142

          k = 0.2500-0.2500-0.2500 (   531 PWs)   bands (ev):

    -4.9816   2.3520   5.4990   5.4991

     highest occupied level (ev):     5.4991

!    total energy              =     -15.83762019 Ry
     Harris-Foulkes estimate   =     -15.83762019 Ry
     estimated scf accuracy    <          9.6E-09 Ry

     The total energy is the sum of the following terms:

     one-electron contribution =       4.78825465 Ry
     hartree contribution      =       1.10212024 Ry
     xc contribution           =      -4.82823650 Ry
     ewald contribution        =     -16.89975858 Ry

     convergence has been achieved in   6 iterations

     Writing output data file Si.save
 
     init_run     :      0.03s CPU      0.04s WALL (       1 calls)
     electrons    :      0.08s CPU      0.09s WALL (       1 calls)

     Called by init_run:
     wfcinit      :      0.01s CPU      0.01s WALL (       1 calls)
     potinit      :      0.01s CPU      0.01s WALL (       1 calls)

     Called by electrons:
     c_bands      :      0.06s CPU      0.07s WALL (       7 calls)
     sum_band     :      0.01s CPU      0.01s WALL (       7 calls)
     v_of_rho     :      0.00s CPU      0.00s WALL (       7 calls)
     mix_rho      :      0.00s CPU      0.00s WALL (       7 calls)

     Called by c_bands:
     init_us_2    :      0.00s CPU      0.00s WALL (     120 calls)
     cegterg      :      0.06s CPU      0.07s WALL (      56 calls)

     Called by sum_band:

     Called by *egterg:
     h_psi        :      0.06s CPU      0.06s WALL (     167 calls)
     g_psi        :      0.00s CPU      0.00s WALL (     103 calls)
     cdiaghg      :      0.01s CPU      0.01s WALL (     151 calls)

     Called by h_psi:
     h_psi:pot    :      0.06s CPU      0.06s WALL (     167 calls)
     h_psi:calbec :      0.01s CPU      0.01s WALL (     167 calls)
     vloc_psi     :      0.05s CPU      0.05s WALL (     167 calls)
     add_vuspsi   :      0.00s CPU      0.00s WALL (     167 calls)

     General routines
     calbec       :      0.01s CPU      0.01s WALL (     167 calls)
     fft          :      0.01s CPU      0.01s WALL (      29 calls)
     fftw         :      0.06s CPU      0.06s WALL (    1536 calls)
 
     Parallel routines
     fft_scatter  :      0.03s CPU      0.04s WALL (    1565 calls)
 
     PWSCF        :     0.14s CPU         0.17s WALL

 
   This run was terminated on:  18: 5:10   6Feb2017            

=------------------------------------------------------------------------------=
   JOB DONE.
=------------------------------------------------------------------------------=
