
     Program ACFDT v.6.0 (svn rev. 13079) starts on  4Oct2016 at 21: 1:50 

     This program is part of the open-source Quantum ESPRESSO suite
     for quantum simulation of materials; please cite
         "P. Giannozzi et al., J. Phys.:Condens. Matter 21 395502 (2009);
          URL http://www.quantum-espresso.org", 
     in publications or presentations arising from this work. More details at
     http://www.quantum-espresso.org/quote

     Parallel version (MPI), running on     1 processors

     Ultrasoft (Vanderbilt) Pseudopotentials

     Reading data from directory:
     /scratch/colonna/ACFDT/espresso-6.0/tempdir/Be-1.save

   Info: using nr1, nr2, nr3 values from input

   Info: using nr1, nr2, nr3 values from input

     IMPORTANT: XC functional enforced from input :
     Exchange-correlation      = SLA  PZ   NOGX NOGC ( 1  1  0  0 0 0)
     Any further DFT definition will be discarded
     Please, verify this is what you really want

               file Be.EXX-fhi.UPF: wavefunction(s)  3S renormalized
 
     G-vector sticks info
     --------------------
     sticks:   dense  smooth     PW     G-vecs:    dense   smooth      PW
     Sum        2509    2509    621                94341    94341   11753
 


SCF-EXXRPA CALCULATION 



       .... SCF-EXXRPA CALCULATION IS STARTING ....
 chi0_done F
 rpa_done F
 oep_done F
 stopped_first_iter F
 iter_save           0
 iter_oep           0
 One_body_term  0.000000000000000E+000
 oep_restart_flag F
 restart_from_scratch F
 line_search F
 poly_search F
 print_result T
 lambda_opt,  0.000000000000000E+000
 save_norm_1, and save_norm_2  0.000000000000000E+000  0.000000000000000E+000
 off_vrs_setup F


ITER #  1 : LOOP OVER EXXRPA POT



     Calculation of q =    0.0000000   0.0000000   0.0000000
 callexx : dft_is_hybrid =  F F

     Only exx_fraction is set to 1.d0
     XC functional still not changed
     Exchange-correlation      = SLA  PZ   NOGX NOGC ( 1  1  0  0 0 0)
     EXX-fraction              =        1.00
EXX: grid of k+q points same as grid of k-points
 callexx 2: dft_is_hybrid =  T F
     + Fock energy             =      -0.68076357 Ry =       -0.68076357 Ry 

 callexx 3: dft_is_hybrid =  T T
 callexx 4: dft_is_hybrid =  T F

     SCF steps #  0

     minimum_total energy      =      -0.68076357 Ry

     The total energy is the sum of the following terms:

     one-electron contribution =       0.00000000 Ry
     xc contribution           =      -0.68076357 Ry
     exact exchange energy     =      -0.68076357 Ry
     rpa correlation energy    =       0.00000000 Ry
 normalization of error density:           1           1  8.126392779375783E-004
 normalization of error density:           2           2  4.816214636429557E-006
 normalization of error density:           3           3  1.575333153364870E-006
 normalization of error density:           4           4  1.473705036651426E-006
 normalization of error density:           5           5  1.335348022879687E-006
 normalization of error density:           6           6  6.136029625008884E-007
 normalization of error density:           7           7  3.975746245930026E-007
 normalization of error density:           8           8  2.455448478508375E-007
 normalization of error density:           9           9  2.439307541323596E-007
 normalization of error density:          10          10  2.400652411540823E-007
 normalization of error density:          11          11  2.272093228929195E-007
 normalization of error density:          12          12  1.663141193730092E-007
 normalization of error density:          13          13  1.291875778859820E-007
 normalization of error density:          14          14  1.256197848576861E-007
 normalization of error density:          15          15  8.834404070519263E-008
 convergency is approach after          15 steps
 normalization of error density:  8.834404070519263E-008
 gradient_of_energy           1  2.261373911485857E-003

     XC functional enforced to be EXXRPA
     Exchange-correlation      = SLA  PZ   NOGX NOGC ( 0  0  0  0 0 0)
     EXX-fraction              =        1.00
     !!! Any further DFT definition will be discarded
     !!! Please, verify this is what you really want !


     Subspace diagonalization in iterative solution of the eigenvalue problem:
     a serial algorithm will be used


   Info: using nr1, nr2, nr3 values from input

   Info: using nr1, nr2, nr3 values from input
     Message from routine kpoint_grid:
     ATTENTION: skip check of k-points equivalence
 
     G-vector sticks info
     --------------------
     sticks:   dense  smooth     PW     G-vecs:    dense   smooth      PW
     Sum        2509    2509    621                94341    94341   11753
 


     bravais-lattice index     =            1
     lattice parameter (alat)  =      15.0000  a.u.
     unit-cell volume          =    3375.0000 (a.u.)^3
     number of atoms/cell      =            1
     number of atomic types    =            1
     number of electrons       =         2.00
     number of Kohn-Sham states=            4
     kinetic-energy cutoff     =      35.0000  Ry
     charge density cutoff     =     140.0000  Ry
     cutoff for Fock operator  =     140.0000  Ry
     Exchange-correlation      = SLA  PZ   NOGX NOGC ( 0  0  0  0 0 0)
     EXX-fraction              =        1.00

     celldm(1)=  15.000000  celldm(2)=   0.000000  celldm(3)=   0.000000
     celldm(4)=   0.000000  celldm(5)=   0.000000  celldm(6)=   0.000000

     crystal axes: (cart. coord. in units of alat)
               a(1) = (   1.000000   0.000000   0.000000 )  
               a(2) = (   0.000000   1.000000   0.000000 )  
               a(3) = (   0.000000   0.000000   1.000000 )  

     reciprocal axes: (cart. coord. in units 2 pi/alat)
               b(1) = (  1.000000  0.000000  0.000000 )  
               b(2) = (  0.000000  1.000000  0.000000 )  
               b(3) = (  0.000000  0.000000  1.000000 )  


     PseudoPot. # 1 for Be read from file:
     ../pseudo/Be.EXX-fhi.UPF
     MD5 check sum: 17e503e2df6aa395e6988bd959d3fa42
     Pseudo is Norm-conserving, Zval =  2.0
     Generated by new atomic code, or converted to UPF format
     Using radial grid of  445 points,  2 beta functions with: 
                l(1) =   0
                l(2) =   1

     atomic species   valence    mass     pseudopotential
        Be             2.00     9.01218     Be( 1.00)

     No symmetry found



   Cartesian axes

     site n.     atom                  positions (alat units)
         1           Be  tau(   1) = (   0.0000000   0.0000000   0.0000000  )

     number of k points=     1
                       cart. coord. in units 2pi/alat
        k(    1) = (   0.0000000   0.0000000   0.0000000), wk =   2.0000000

     Dense  grid:    94341 G-vectors     FFT dimensions: (  60,  60,  60)

     Estimated max dynamical RAM per process >     123.03Mb

     The potential is recalculated from file :
     /scratch/colonna/ACFDT/espresso-6.0/tempdir/Be-1.save/charge-density.dat

     Starting wfc from file

     Band Structure Calculation
     Davidson diagonalization with overlap

     ethr =  2.50E-13,  avg # of iterations = 13.0

     The total energy is the sum of the following terms:

     sum of ks eigenvalues     =      -0.80429533 Ry
     sum of local potentials   =      -0.32993872 Ry
     hartree contribution      =       0.64630639 Ry
     ewald contribution        =      -0.75661271 Ry
     lda (pbe) xc contribution =       0.00000000 Ry

     Etot with lda(pbe) xc     =      -1.24454038 Ry
     Etot with lda without xc  =      -1.24454038 Ry

     total cpu time spent up to now is        0.4 secs

     End of band structure calculation

          k = 0.0000 0.0000 0.0000 ( 11753 PWs)   bands (ev):

    -5.4715  -1.8518  -1.8518  -1.8518

     highest occupied, lowest unoccupied level (ev):    -5.4715   -1.8518

     Writing output data file Be-1.save


ITER #  2 : LOOP OVER EXXRPA POT



     Calculation of q =    0.0000000   0.0000000   0.0000000
 callexx : dft_is_hybrid =  T F

     Only exx_fraction is set to 1.d0
     XC functional still not changed
     Exchange-correlation      = SLA  PZ   NOGX NOGC ( 0  0  0  0 0 0)
     EXX-fraction              =        1.00
EXX: grid of k+q points same as grid of k-points
 callexx 2: dft_is_hybrid =  T F
     + Fock energy             =      -0.68063010 Ry =       -0.68063010 Ry 

 callexx 3: dft_is_hybrid =  T T
 callexx 4: dft_is_hybrid =  T F

     SCF steps #  1

     minimum_total energy      =      -1.92517048 Ry

     The total energy is the sum of the following terms:

     one-electron contribution =      -1.24454038 Ry
     xc contribution           =      -0.68063010 Ry
     exact exchange energy     =      -0.68063010 Ry
     rpa correlation energy    =       0.00000000 Ry
 normalization of error density:           1           1  1.315293909421739E-006
 normalization of error density:           2           2  1.616023221990060E-007
 normalization of error density:           3           3  1.543648423677999E-007
 normalization of error density:           4           4  8.191055323954616E-008
 convergency is approach after           4 steps
 normalization of error density:  8.191055323954616E-008
 gradient_of_energy           2  1.110335349469662E-003

     XC functional enforced to be EXXRPA
     Exchange-correlation      = SLA  PZ   NOGX NOGC ( 0  0  0  0 0 0)
     EXX-fraction              =        1.00
     !!! Any further DFT definition will be discarded
     !!! Please, verify this is what you really want !


   Info: using nr1, nr2, nr3 values from input

   Info: using nr1, nr2, nr3 values from input
     Message from routine kpoint_grid:
     ATTENTION: skip check of k-points equivalence
 
     G-vector sticks info
     --------------------
     sticks:   dense  smooth     PW     G-vecs:    dense   smooth      PW
     Sum        2509    2509    621                94341    94341   11753
 


     bravais-lattice index     =            1
     lattice parameter (alat)  =      15.0000  a.u.
     unit-cell volume          =    3375.0000 (a.u.)^3
     number of atoms/cell      =            1
     number of atomic types    =            1
     number of electrons       =         2.00
     number of Kohn-Sham states=            4
     kinetic-energy cutoff     =      35.0000  Ry
     charge density cutoff     =     140.0000  Ry
     cutoff for Fock operator  =     140.0000  Ry
     Exchange-correlation      = SLA  PZ   NOGX NOGC ( 0  0  0  0 0 0)
     EXX-fraction              =        1.00

     celldm(1)=  15.000000  celldm(2)=   0.000000  celldm(3)=   0.000000
     celldm(4)=   0.000000  celldm(5)=   0.000000  celldm(6)=   0.000000

     crystal axes: (cart. coord. in units of alat)
               a(1) = (   1.000000   0.000000   0.000000 )  
               a(2) = (   0.000000   1.000000   0.000000 )  
               a(3) = (   0.000000   0.000000   1.000000 )  

     reciprocal axes: (cart. coord. in units 2 pi/alat)
               b(1) = (  1.000000  0.000000  0.000000 )  
               b(2) = (  0.000000  1.000000  0.000000 )  
               b(3) = (  0.000000  0.000000  1.000000 )  


     PseudoPot. # 1 for Be read from file:
     ../pseudo/Be.EXX-fhi.UPF
     MD5 check sum: 17e503e2df6aa395e6988bd959d3fa42
     Pseudo is Norm-conserving, Zval =  2.0
     Generated by new atomic code, or converted to UPF format
     Using radial grid of  445 points,  2 beta functions with: 
                l(1) =   0
                l(2) =   1

     atomic species   valence    mass     pseudopotential
        Be             2.00     9.01218     Be( 1.00)

     No symmetry found



   Cartesian axes

     site n.     atom                  positions (alat units)
         1           Be  tau(   1) = (   0.0000000   0.0000000   0.0000000  )

     number of k points=     1
                       cart. coord. in units 2pi/alat
        k(    1) = (   0.0000000   0.0000000   0.0000000), wk =   2.0000000

     Dense  grid:    94341 G-vectors     FFT dimensions: (  60,  60,  60)

     Estimated max dynamical RAM per process >     123.03Mb

     The potential is recalculated from file :
     /scratch/colonna/ACFDT/espresso-6.0/tempdir/Be-1.save/charge-density.dat

     Starting wfc from file

     Band Structure Calculation
     Davidson diagonalization with overlap

     ethr =  2.50E-13,  avg # of iterations = 11.0

     The total energy is the sum of the following terms:

     sum of ks eigenvalues     =      -0.81352760 Ry
     sum of local potentials   =      -0.32069495 Ry
     hartree contribution      =       0.64612212 Ry
     ewald contribution        =      -0.75661271 Ry
     lda (pbe) xc contribution =       0.00000000 Ry

     Etot with lda(pbe) xc     =      -1.24471315 Ry
     Etot with lda without xc  =      -1.24471315 Ry

     total cpu time spent up to now is        0.8 secs

     End of band structure calculation

          k = 0.0000 0.0000 0.0000 ( 11753 PWs)   bands (ev):

    -5.5343  -1.9242  -1.9242  -1.9242

     highest occupied, lowest unoccupied level (ev):    -5.5343   -1.9242

     Writing output data file Be-1.save
 oep convergency:   1.708331765972481E-003 F


ITER #  3 : LOOP OVER EXXRPA POT



     Calculation of q =    0.0000000   0.0000000   0.0000000
 callexx : dft_is_hybrid =  T F

     Only exx_fraction is set to 1.d0
     XC functional still not changed
     Exchange-correlation      = SLA  PZ   NOGX NOGC ( 0  0  0  0 0 0)
     EXX-fraction              =        1.00
EXX: grid of k+q points same as grid of k-points
 callexx 2: dft_is_hybrid =  T F
     + Fock energy             =      -0.68051715 Ry =       -0.68051715 Ry 

 callexx 3: dft_is_hybrid =  T T
 callexx 4: dft_is_hybrid =  T F

     SCF steps #  2

     minimum_total energy      =      -1.92523030 Ry

     The total energy is the sum of the following terms:

     one-electron contribution =      -1.24471315 Ry
     xc contribution           =      -0.68051715 Ry
     exact exchange energy     =      -0.68051715 Ry
     rpa correlation energy    =       0.00000000 Ry
 normalization of error density:           1           1  5.701974223637290E-007
 normalization of error density:           2           2  9.902797110659340E-008
 convergency is approach after           2 steps
 normalization of error density:  9.902797110659340E-008
 gradient_of_energy           3  5.381694262500669E-004

     XC functional enforced to be EXXRPA
     Exchange-correlation      = SLA  PZ   NOGX NOGC ( 0  0  0  0 0 0)
     EXX-fraction              =        1.00
     !!! Any further DFT definition will be discarded
     !!! Please, verify this is what you really want !


   Info: using nr1, nr2, nr3 values from input

   Info: using nr1, nr2, nr3 values from input
     Message from routine kpoint_grid:
     ATTENTION: skip check of k-points equivalence
 
     G-vector sticks info
     --------------------
     sticks:   dense  smooth     PW     G-vecs:    dense   smooth      PW
     Sum        2509    2509    621                94341    94341   11753
 


     bravais-lattice index     =            1
     lattice parameter (alat)  =      15.0000  a.u.
     unit-cell volume          =    3375.0000 (a.u.)^3
     number of atoms/cell      =            1
     number of atomic types    =            1
     number of electrons       =         2.00
     number of Kohn-Sham states=            4
     kinetic-energy cutoff     =      35.0000  Ry
     charge density cutoff     =     140.0000  Ry
     cutoff for Fock operator  =     140.0000  Ry
     Exchange-correlation      = SLA  PZ   NOGX NOGC ( 0  0  0  0 0 0)
     EXX-fraction              =        1.00

     celldm(1)=  15.000000  celldm(2)=   0.000000  celldm(3)=   0.000000
     celldm(4)=   0.000000  celldm(5)=   0.000000  celldm(6)=   0.000000

     crystal axes: (cart. coord. in units of alat)
               a(1) = (   1.000000   0.000000   0.000000 )  
               a(2) = (   0.000000   1.000000   0.000000 )  
               a(3) = (   0.000000   0.000000   1.000000 )  

     reciprocal axes: (cart. coord. in units 2 pi/alat)
               b(1) = (  1.000000  0.000000  0.000000 )  
               b(2) = (  0.000000  1.000000  0.000000 )  
               b(3) = (  0.000000  0.000000  1.000000 )  


     PseudoPot. # 1 for Be read from file:
     ../pseudo/Be.EXX-fhi.UPF
     MD5 check sum: 17e503e2df6aa395e6988bd959d3fa42
     Pseudo is Norm-conserving, Zval =  2.0
     Generated by new atomic code, or converted to UPF format
     Using radial grid of  445 points,  2 beta functions with: 
                l(1) =   0
                l(2) =   1

     atomic species   valence    mass     pseudopotential
        Be             2.00     9.01218     Be( 1.00)

     No symmetry found



   Cartesian axes

     site n.     atom                  positions (alat units)
         1           Be  tau(   1) = (   0.0000000   0.0000000   0.0000000  )

     number of k points=     1
                       cart. coord. in units 2pi/alat
        k(    1) = (   0.0000000   0.0000000   0.0000000), wk =   2.0000000

     Dense  grid:    94341 G-vectors     FFT dimensions: (  60,  60,  60)

     Estimated max dynamical RAM per process >     123.03Mb

     The potential is recalculated from file :
     /scratch/colonna/ACFDT/espresso-6.0/tempdir/Be-1.save/charge-density.dat

     Starting wfc from file

     Band Structure Calculation
     Davidson diagonalization with overlap

     ethr =  2.50E-13,  avg # of iterations =  9.0

     The total energy is the sum of the following terms:

     sum of ks eigenvalues     =      -0.81794021 Ry
     sum of local potentials   =      -0.31624141 Ry
     hartree contribution      =       0.64598908 Ry
     ewald contribution        =      -0.75661271 Ry
     lda (pbe) xc contribution =       0.00000000 Ry

     Etot with lda(pbe) xc     =      -1.24480525 Ry
     Etot with lda without xc  =      -1.24480525 Ry

     total cpu time spent up to now is        1.1 secs

     End of band structure calculation

          k = 0.0000 0.0000 0.0000 ( 11753 PWs)   bands (ev):

    -5.5643  -1.9589  -1.9589  -1.9589

     highest occupied, lowest unoccupied level (ev):    -5.5643   -1.9589

     Writing output data file Be-1.save
 oep convergency:   2.687671831037781E-004 F


ITER #  4 : LOOP OVER EXXRPA POT



     Calculation of q =    0.0000000   0.0000000   0.0000000
 callexx : dft_is_hybrid =  T F

     Only exx_fraction is set to 1.d0
     XC functional still not changed
     Exchange-correlation      = SLA  PZ   NOGX NOGC ( 0  0  0  0 0 0)
     EXX-fraction              =        1.00
EXX: grid of k+q points same as grid of k-points
 callexx 2: dft_is_hybrid =  T F
     + Fock energy             =      -0.68043916 Ry =       -0.68043916 Ry 

 callexx 3: dft_is_hybrid =  T T
 callexx 4: dft_is_hybrid =  T F

     SCF steps #  3

     minimum_total energy      =      -1.92524441 Ry

     The total energy is the sum of the following terms:

     one-electron contribution =      -1.24480525 Ry
     xc contribution           =      -0.68043916 Ry
     exact exchange energy     =      -0.68043916 Ry
     rpa correlation energy    =       0.00000000 Ry
 normalization of error density:           1           1  2.750990750400462E-007
 normalization of error density:           2           2  1.372837008338239E-007
 normalization of error density:           3           3  1.055295469789397E-007
 normalization of error density:           4           4  7.484780166846520E-008
 convergency is approach after           4 steps
 normalization of error density:  7.484780166846520E-008
 gradient_of_energy           4  2.611545171261577E-004

     XC functional enforced to be EXXRPA
     Exchange-correlation      = SLA  PZ   NOGX NOGC ( 0  0  0  0 0 0)
     EXX-fraction              =        1.00
     !!! Any further DFT definition will be discarded
     !!! Please, verify this is what you really want !


   Info: using nr1, nr2, nr3 values from input

   Info: using nr1, nr2, nr3 values from input
     Message from routine kpoint_grid:
     ATTENTION: skip check of k-points equivalence
 
     G-vector sticks info
     --------------------
     sticks:   dense  smooth     PW     G-vecs:    dense   smooth      PW
     Sum        2509    2509    621                94341    94341   11753
 


     bravais-lattice index     =            1
     lattice parameter (alat)  =      15.0000  a.u.
     unit-cell volume          =    3375.0000 (a.u.)^3
     number of atoms/cell      =            1
     number of atomic types    =            1
     number of electrons       =         2.00
     number of Kohn-Sham states=            4
     kinetic-energy cutoff     =      35.0000  Ry
     charge density cutoff     =     140.0000  Ry
     cutoff for Fock operator  =     140.0000  Ry
     Exchange-correlation      = SLA  PZ   NOGX NOGC ( 0  0  0  0 0 0)
     EXX-fraction              =        1.00

     celldm(1)=  15.000000  celldm(2)=   0.000000  celldm(3)=   0.000000
     celldm(4)=   0.000000  celldm(5)=   0.000000  celldm(6)=   0.000000

     crystal axes: (cart. coord. in units of alat)
               a(1) = (   1.000000   0.000000   0.000000 )  
               a(2) = (   0.000000   1.000000   0.000000 )  
               a(3) = (   0.000000   0.000000   1.000000 )  

     reciprocal axes: (cart. coord. in units 2 pi/alat)
               b(1) = (  1.000000  0.000000  0.000000 )  
               b(2) = (  0.000000  1.000000  0.000000 )  
               b(3) = (  0.000000  0.000000  1.000000 )  


     PseudoPot. # 1 for Be read from file:
     ../pseudo/Be.EXX-fhi.UPF
     MD5 check sum: 17e503e2df6aa395e6988bd959d3fa42
     Pseudo is Norm-conserving, Zval =  2.0
     Generated by new atomic code, or converted to UPF format
     Using radial grid of  445 points,  2 beta functions with: 
                l(1) =   0
                l(2) =   1

     atomic species   valence    mass     pseudopotential
        Be             2.00     9.01218     Be( 1.00)

     No symmetry found



   Cartesian axes

     site n.     atom                  positions (alat units)
         1           Be  tau(   1) = (   0.0000000   0.0000000   0.0000000  )

     number of k points=     1
                       cart. coord. in units 2pi/alat
        k(    1) = (   0.0000000   0.0000000   0.0000000), wk =   2.0000000

     Dense  grid:    94341 G-vectors     FFT dimensions: (  60,  60,  60)

     Estimated max dynamical RAM per process >     123.03Mb

     The potential is recalculated from file :
     /scratch/colonna/ACFDT/espresso-6.0/tempdir/Be-1.save/charge-density.dat

     Starting wfc from file

     Band Structure Calculation
     Davidson diagonalization with overlap

     ethr =  2.50E-13,  avg # of iterations =  9.0

     The total energy is the sum of the following terms:

     sum of ks eigenvalues     =      -0.82018691 Ry
     sum of local potentials   =      -0.31396387 Ry
     hartree contribution      =       0.64590899 Ry
     ewald contribution        =      -0.75661271 Ry
     lda (pbe) xc contribution =       0.00000000 Ry

     Etot with lda(pbe) xc     =      -1.24485451 Ry
     Etot with lda without xc  =      -1.24485451 Ry

     total cpu time spent up to now is        1.5 secs

     End of band structure calculation

          k = 0.0000 0.0000 0.0000 ( 11753 PWs)   bands (ev):

    -5.5796  -1.9766  -1.9766  -1.9766

     highest occupied, lowest unoccupied level (ev):    -5.5796   -1.9766

     Writing output data file Be-1.save
 oep convergency:   1.309466074451145E-004 F


ITER #  5 : LOOP OVER EXXRPA POT



     Calculation of q =    0.0000000   0.0000000   0.0000000
 callexx : dft_is_hybrid =  T F

     Only exx_fraction is set to 1.d0
     XC functional still not changed
     Exchange-correlation      = SLA  PZ   NOGX NOGC ( 0  0  0  0 0 0)
     EXX-fraction              =        1.00
EXX: grid of k+q points same as grid of k-points
 callexx 2: dft_is_hybrid =  T F
     + Fock energy             =      -0.68039329 Ry =       -0.68039329 Ry 

 callexx 3: dft_is_hybrid =  T T
 callexx 4: dft_is_hybrid =  T F

     SCF steps #  4

     minimum_total energy      =      -1.92524780 Ry

     The total energy is the sum of the following terms:

     one-electron contribution =      -1.24485451 Ry
     xc contribution           =      -0.68039329 Ry
     exact exchange energy     =      -0.68039329 Ry
     rpa correlation energy    =       0.00000000 Ry
 normalization of error density:           1           1  1.250748682536955E-007
 normalization of error density:           2           2  9.619140571896397E-008
 convergency is approach after           2 steps
 normalization of error density:  9.619140571896397E-008
 gradient_of_energy           5  1.259074444028514E-004

     XC functional enforced to be EXXRPA
     Exchange-correlation      = SLA  PZ   NOGX NOGC ( 0  0  0  0 0 0)
     EXX-fraction              =        1.00
     !!! Any further DFT definition will be discarded
     !!! Please, verify this is what you really want !


   Info: using nr1, nr2, nr3 values from input

   Info: using nr1, nr2, nr3 values from input
     Message from routine kpoint_grid:
     ATTENTION: skip check of k-points equivalence
 
     G-vector sticks info
     --------------------
     sticks:   dense  smooth     PW     G-vecs:    dense   smooth      PW
     Sum        2509    2509    621                94341    94341   11753
 


     bravais-lattice index     =            1
     lattice parameter (alat)  =      15.0000  a.u.
     unit-cell volume          =    3375.0000 (a.u.)^3
     number of atoms/cell      =            1
     number of atomic types    =            1
     number of electrons       =         2.00
     number of Kohn-Sham states=            4
     kinetic-energy cutoff     =      35.0000  Ry
     charge density cutoff     =     140.0000  Ry
     cutoff for Fock operator  =     140.0000  Ry
     Exchange-correlation      = SLA  PZ   NOGX NOGC ( 0  0  0  0 0 0)
     EXX-fraction              =        1.00

     celldm(1)=  15.000000  celldm(2)=   0.000000  celldm(3)=   0.000000
     celldm(4)=   0.000000  celldm(5)=   0.000000  celldm(6)=   0.000000

     crystal axes: (cart. coord. in units of alat)
               a(1) = (   1.000000   0.000000   0.000000 )  
               a(2) = (   0.000000   1.000000   0.000000 )  
               a(3) = (   0.000000   0.000000   1.000000 )  

     reciprocal axes: (cart. coord. in units 2 pi/alat)
               b(1) = (  1.000000  0.000000  0.000000 )  
               b(2) = (  0.000000  1.000000  0.000000 )  
               b(3) = (  0.000000  0.000000  1.000000 )  


     PseudoPot. # 1 for Be read from file:
     ../pseudo/Be.EXX-fhi.UPF
     MD5 check sum: 17e503e2df6aa395e6988bd959d3fa42
     Pseudo is Norm-conserving, Zval =  2.0
     Generated by new atomic code, or converted to UPF format
     Using radial grid of  445 points,  2 beta functions with: 
                l(1) =   0
                l(2) =   1

     atomic species   valence    mass     pseudopotential
        Be             2.00     9.01218     Be( 1.00)

     No symmetry found



   Cartesian axes

     site n.     atom                  positions (alat units)
         1           Be  tau(   1) = (   0.0000000   0.0000000   0.0000000  )

     number of k points=     1
                       cart. coord. in units 2pi/alat
        k(    1) = (   0.0000000   0.0000000   0.0000000), wk =   2.0000000

     Dense  grid:    94341 G-vectors     FFT dimensions: (  60,  60,  60)

     Estimated max dynamical RAM per process >     123.03Mb

     The potential is recalculated from file :
     /scratch/colonna/ACFDT/espresso-6.0/tempdir/Be-1.save/charge-density.dat

     Starting wfc from file

     Band Structure Calculation
     Davidson diagonalization with overlap

     ethr =  2.50E-13,  avg # of iterations =  8.0

     The total energy is the sum of the following terms:

     sum of ks eigenvalues     =      -0.82134948 Ry
     sum of local potentials   =      -0.31278323 Ry
     hartree contribution      =       0.64586563 Ry
     ewald contribution        =      -0.75661271 Ry
     lda (pbe) xc contribution =       0.00000000 Ry

     Etot with lda(pbe) xc     =      -1.24487980 Ry
     Etot with lda without xc  =      -1.24487980 Ry

     total cpu time spent up to now is        1.8 secs

     End of band structure calculation

          k = 0.0000 0.0000 0.0000 ( 11753 PWs)   bands (ev):

    -5.5875  -1.9856  -1.9856  -1.9856

     highest occupied, lowest unoccupied level (ev):    -5.5875   -1.9856

     Writing output data file Be-1.save
 oep convergency:   6.140793169145899E-005 F


ITER #  6 : LOOP OVER EXXRPA POT



     Calculation of q =    0.0000000   0.0000000   0.0000000
 callexx : dft_is_hybrid =  T F

     Only exx_fraction is set to 1.d0
     XC functional still not changed
     Exchange-correlation      = SLA  PZ   NOGX NOGC ( 0  0  0  0 0 0)
     EXX-fraction              =        1.00
EXX: grid of k+q points same as grid of k-points
 callexx 2: dft_is_hybrid =  T F
     + Fock energy             =      -0.68036879 Ry =       -0.68036879 Ry 

 callexx 3: dft_is_hybrid =  T T
 callexx 4: dft_is_hybrid =  T F

     SCF steps #  5

     minimum_total energy      =      -1.92524859 Ry

     The total energy is the sum of the following terms:

     one-electron contribution =      -1.24487980 Ry
     xc contribution           =      -0.68036879 Ry
     exact exchange energy     =      -0.68036879 Ry
     rpa correlation energy    =       0.00000000 Ry
 normalization of error density:           1           1  1.245711898774502E-007
 normalization of error density:           2           2  1.133388639521899E-007
 normalization of error density:           3           3  7.249740190959836E-008
 convergency is approach after           3 steps
 normalization of error density:  7.249740190959836E-008
 gradient_of_energy           6  6.251264342551317E-005

     XC functional enforced to be EXXRPA
     Exchange-correlation      = SLA  PZ   NOGX NOGC ( 0  0  0  0 0 0)
     EXX-fraction              =        1.00
     !!! Any further DFT definition will be discarded
     !!! Please, verify this is what you really want !


   Info: using nr1, nr2, nr3 values from input

   Info: using nr1, nr2, nr3 values from input
     Message from routine kpoint_grid:
     ATTENTION: skip check of k-points equivalence
 
     G-vector sticks info
     --------------------
     sticks:   dense  smooth     PW     G-vecs:    dense   smooth      PW
     Sum        2509    2509    621                94341    94341   11753
 


     bravais-lattice index     =            1
     lattice parameter (alat)  =      15.0000  a.u.
     unit-cell volume          =    3375.0000 (a.u.)^3
     number of atoms/cell      =            1
     number of atomic types    =            1
     number of electrons       =         2.00
     number of Kohn-Sham states=            4
     kinetic-energy cutoff     =      35.0000  Ry
     charge density cutoff     =     140.0000  Ry
     cutoff for Fock operator  =     140.0000  Ry
     Exchange-correlation      = SLA  PZ   NOGX NOGC ( 0  0  0  0 0 0)
     EXX-fraction              =        1.00

     celldm(1)=  15.000000  celldm(2)=   0.000000  celldm(3)=   0.000000
     celldm(4)=   0.000000  celldm(5)=   0.000000  celldm(6)=   0.000000

     crystal axes: (cart. coord. in units of alat)
               a(1) = (   1.000000   0.000000   0.000000 )  
               a(2) = (   0.000000   1.000000   0.000000 )  
               a(3) = (   0.000000   0.000000   1.000000 )  

     reciprocal axes: (cart. coord. in units 2 pi/alat)
               b(1) = (  1.000000  0.000000  0.000000 )  
               b(2) = (  0.000000  1.000000  0.000000 )  
               b(3) = (  0.000000  0.000000  1.000000 )  


     PseudoPot. # 1 for Be read from file:
     ../pseudo/Be.EXX-fhi.UPF
     MD5 check sum: 17e503e2df6aa395e6988bd959d3fa42
     Pseudo is Norm-conserving, Zval =  2.0
     Generated by new atomic code, or converted to UPF format
     Using radial grid of  445 points,  2 beta functions with: 
                l(1) =   0
                l(2) =   1

     atomic species   valence    mass     pseudopotential
        Be             2.00     9.01218     Be( 1.00)

     No symmetry found



   Cartesian axes

     site n.     atom                  positions (alat units)
         1           Be  tau(   1) = (   0.0000000   0.0000000   0.0000000  )

     number of k points=     1
                       cart. coord. in units 2pi/alat
        k(    1) = (   0.0000000   0.0000000   0.0000000), wk =   2.0000000

     Dense  grid:    94341 G-vectors     FFT dimensions: (  60,  60,  60)

     Estimated max dynamical RAM per process >     123.03Mb

     The potential is recalculated from file :
     /scratch/colonna/ACFDT/espresso-6.0/tempdir/Be-1.save/charge-density.dat

     Starting wfc from file

     Band Structure Calculation
     Davidson diagonalization with overlap

     ethr =  2.50E-13,  avg # of iterations =  7.0

     The total energy is the sum of the following terms:

     sum of ks eigenvalues     =      -0.82190185 Ry
     sum of local potentials   =      -0.31222002 Ry
     hartree contribution      =       0.64584036 Ry
     ewald contribution        =      -0.75661271 Ry
     lda (pbe) xc contribution =       0.00000000 Ry

     Etot with lda(pbe) xc     =      -1.24489422 Ry
     Etot with lda without xc  =      -1.24489422 Ry

     total cpu time spent up to now is        2.1 secs

     End of band structure calculation

          k = 0.0000 0.0000 0.0000 ( 11753 PWs)   bands (ev):

    -5.5913  -1.9900  -1.9900  -1.9900

     highest occupied, lowest unoccupied level (ev):    -5.5913   -1.9900

     Writing output data file Be-1.save
 oep convergency:   3.105364542484192E-005 F


ITER #  7 : LOOP OVER EXXRPA POT



     Calculation of q =    0.0000000   0.0000000   0.0000000
 callexx : dft_is_hybrid =  T F

     Only exx_fraction is set to 1.d0
     XC functional still not changed
     Exchange-correlation      = SLA  PZ   NOGX NOGC ( 0  0  0  0 0 0)
     EXX-fraction              =        1.00
EXX: grid of k+q points same as grid of k-points
 callexx 2: dft_is_hybrid =  T F
     + Fock energy             =      -0.68035457 Ry =       -0.68035457 Ry 

 callexx 3: dft_is_hybrid =  T T
 callexx 4: dft_is_hybrid =  T F

     SCF steps #  6

     minimum_total energy      =      -1.92524879 Ry

     The total energy is the sum of the following terms:

     one-electron contribution =      -1.24489422 Ry
     xc contribution           =      -0.68035457 Ry
     exact exchange energy     =      -0.68035457 Ry
     rpa correlation energy    =       0.00000000 Ry
 normalization of error density:           1           1  7.688334721076953E-008
 convergency is approach after           1 steps
 normalization of error density:  7.688334721076953E-008
 gradient_of_energy           7  3.053700038849027E-005

     XC functional enforced to be EXXRPA
     Exchange-correlation      = SLA  PZ   NOGX NOGC ( 0  0  0  0 0 0)
     EXX-fraction              =        1.00
     !!! Any further DFT definition will be discarded
     !!! Please, verify this is what you really want !


   Info: using nr1, nr2, nr3 values from input

   Info: using nr1, nr2, nr3 values from input
     Message from routine kpoint_grid:
     ATTENTION: skip check of k-points equivalence
 
     G-vector sticks info
     --------------------
     sticks:   dense  smooth     PW     G-vecs:    dense   smooth      PW
     Sum        2509    2509    621                94341    94341   11753
 


     bravais-lattice index     =            1
     lattice parameter (alat)  =      15.0000  a.u.
     unit-cell volume          =    3375.0000 (a.u.)^3
     number of atoms/cell      =            1
     number of atomic types    =            1
     number of electrons       =         2.00
     number of Kohn-Sham states=            4
     kinetic-energy cutoff     =      35.0000  Ry
     charge density cutoff     =     140.0000  Ry
     cutoff for Fock operator  =     140.0000  Ry
     Exchange-correlation      = SLA  PZ   NOGX NOGC ( 0  0  0  0 0 0)
     EXX-fraction              =        1.00

     celldm(1)=  15.000000  celldm(2)=   0.000000  celldm(3)=   0.000000
     celldm(4)=   0.000000  celldm(5)=   0.000000  celldm(6)=   0.000000

     crystal axes: (cart. coord. in units of alat)
               a(1) = (   1.000000   0.000000   0.000000 )  
               a(2) = (   0.000000   1.000000   0.000000 )  
               a(3) = (   0.000000   0.000000   1.000000 )  

     reciprocal axes: (cart. coord. in units 2 pi/alat)
               b(1) = (  1.000000  0.000000  0.000000 )  
               b(2) = (  0.000000  1.000000  0.000000 )  
               b(3) = (  0.000000  0.000000  1.000000 )  


     PseudoPot. # 1 for Be read from file:
     ../pseudo/Be.EXX-fhi.UPF
     MD5 check sum: 17e503e2df6aa395e6988bd959d3fa42
     Pseudo is Norm-conserving, Zval =  2.0
     Generated by new atomic code, or converted to UPF format
     Using radial grid of  445 points,  2 beta functions with: 
                l(1) =   0
                l(2) =   1

     atomic species   valence    mass     pseudopotential
        Be             2.00     9.01218     Be( 1.00)

     No symmetry found



   Cartesian axes

     site n.     atom                  positions (alat units)
         1           Be  tau(   1) = (   0.0000000   0.0000000   0.0000000  )

     number of k points=     1
                       cart. coord. in units 2pi/alat
        k(    1) = (   0.0000000   0.0000000   0.0000000), wk =   2.0000000

     Dense  grid:    94341 G-vectors     FFT dimensions: (  60,  60,  60)

     Estimated max dynamical RAM per process >     123.03Mb

     The potential is recalculated from file :
     /scratch/colonna/ACFDT/espresso-6.0/tempdir/Be-1.save/charge-density.dat

     Starting wfc from file

     Band Structure Calculation
     Davidson diagonalization with overlap

     ethr =  2.50E-13,  avg # of iterations =  7.0

     The total energy is the sum of the following terms:

     sum of ks eigenvalues     =      -0.82219071 Ry
     sum of local potentials   =      -0.31192545 Ry
     hartree contribution      =       0.64582735 Ry
     ewald contribution        =      -0.75661271 Ry
     lda (pbe) xc contribution =       0.00000000 Ry

     Etot with lda(pbe) xc     =      -1.24490153 Ry
     Etot with lda without xc  =      -1.24490153 Ry

     total cpu time spent up to now is        2.3 secs

     End of band structure calculation

          k = 0.0000 0.0000 0.0000 ( 11753 PWs)   bands (ev):

    -5.5932  -1.9922  -1.9922  -1.9922

     highest occupied, lowest unoccupied level (ev):    -5.5932   -1.9922

     Writing output data file Be-1.save
 oep convergency:   1.446400632718368E-005 F


ITER #  8 : LOOP OVER EXXRPA POT



     Calculation of q =    0.0000000   0.0000000   0.0000000
 callexx : dft_is_hybrid =  T F

     Only exx_fraction is set to 1.d0
     XC functional still not changed
     Exchange-correlation      = SLA  PZ   NOGX NOGC ( 0  0  0  0 0 0)
     EXX-fraction              =        1.00
EXX: grid of k+q points same as grid of k-points
 callexx 2: dft_is_hybrid =  T F
     + Fock energy             =      -0.68034731 Ry =       -0.68034731 Ry 

 callexx 3: dft_is_hybrid =  T T
 callexx 4: dft_is_hybrid =  T F

     SCF steps #  7

     minimum_total energy      =      -1.92524884 Ry

     The total energy is the sum of the following terms:

     one-electron contribution =      -1.24490153 Ry
     xc contribution           =      -0.68034731 Ry
     exact exchange energy     =      -0.68034731 Ry
     rpa correlation energy    =       0.00000000 Ry
 normalization of error density:           1           1  7.937280948124072E-008
 convergency is approach after           1 steps
 normalization of error density:  7.937280948124072E-008
 gradient_of_energy           8  1.590114324378337E-005

     XC functional enforced to be EXXRPA
     Exchange-correlation      = SLA  PZ   NOGX NOGC ( 0  0  0  0 0 0)
     EXX-fraction              =        1.00
     !!! Any further DFT definition will be discarded
     !!! Please, verify this is what you really want !


   Info: using nr1, nr2, nr3 values from input

   Info: using nr1, nr2, nr3 values from input
     Message from routine kpoint_grid:
     ATTENTION: skip check of k-points equivalence
 
     G-vector sticks info
     --------------------
     sticks:   dense  smooth     PW     G-vecs:    dense   smooth      PW
     Sum        2509    2509    621                94341    94341   11753
 


     bravais-lattice index     =            1
     lattice parameter (alat)  =      15.0000  a.u.
     unit-cell volume          =    3375.0000 (a.u.)^3
     number of atoms/cell      =            1
     number of atomic types    =            1
     number of electrons       =         2.00
     number of Kohn-Sham states=            4
     kinetic-energy cutoff     =      35.0000  Ry
     charge density cutoff     =     140.0000  Ry
     cutoff for Fock operator  =     140.0000  Ry
     Exchange-correlation      = SLA  PZ   NOGX NOGC ( 0  0  0  0 0 0)
     EXX-fraction              =        1.00

     celldm(1)=  15.000000  celldm(2)=   0.000000  celldm(3)=   0.000000
     celldm(4)=   0.000000  celldm(5)=   0.000000  celldm(6)=   0.000000

     crystal axes: (cart. coord. in units of alat)
               a(1) = (   1.000000   0.000000   0.000000 )  
               a(2) = (   0.000000   1.000000   0.000000 )  
               a(3) = (   0.000000   0.000000   1.000000 )  

     reciprocal axes: (cart. coord. in units 2 pi/alat)
               b(1) = (  1.000000  0.000000  0.000000 )  
               b(2) = (  0.000000  1.000000  0.000000 )  
               b(3) = (  0.000000  0.000000  1.000000 )  


     PseudoPot. # 1 for Be read from file:
     ../pseudo/Be.EXX-fhi.UPF
     MD5 check sum: 17e503e2df6aa395e6988bd959d3fa42
     Pseudo is Norm-conserving, Zval =  2.0
     Generated by new atomic code, or converted to UPF format
     Using radial grid of  445 points,  2 beta functions with: 
                l(1) =   0
                l(2) =   1

     atomic species   valence    mass     pseudopotential
        Be             2.00     9.01218     Be( 1.00)

     No symmetry found



   Cartesian axes

     site n.     atom                  positions (alat units)
         1           Be  tau(   1) = (   0.0000000   0.0000000   0.0000000  )

     number of k points=     1
                       cart. coord. in units 2pi/alat
        k(    1) = (   0.0000000   0.0000000   0.0000000), wk =   2.0000000

     Dense  grid:    94341 G-vectors     FFT dimensions: (  60,  60,  60)

     Estimated max dynamical RAM per process >     123.03Mb

     The potential is recalculated from file :
     /scratch/colonna/ACFDT/espresso-6.0/tempdir/Be-1.save/charge-density.dat

     Starting wfc from file

     Band Structure Calculation
     Davidson diagonalization with overlap

     ethr =  2.50E-13,  avg # of iterations =  6.0

     The total energy is the sum of the following terms:

     sum of ks eigenvalues     =      -0.82234166 Ry
     sum of local potentials   =      -0.31177170 Ry
     hartree contribution      =       0.64582104 Ry
     ewald contribution        =      -0.75661271 Ry
     lda (pbe) xc contribution =       0.00000000 Ry

     Etot with lda(pbe) xc     =      -1.24490503 Ry
     Etot with lda without xc  =      -1.24490503 Ry

     total cpu time spent up to now is        2.6 secs

     End of band structure calculation

          k = 0.0000 0.0000 0.0000 ( 11753 PWs)   bands (ev):

    -5.5943  -1.9934  -1.9934  -1.9934

     highest occupied, lowest unoccupied level (ev):    -5.5943   -1.9934

     Writing output data file Be-1.save
 oep convergency:   6.755131034030423E-006 F


ITER #  9 : LOOP OVER EXXRPA POT



     Calculation of q =    0.0000000   0.0000000   0.0000000
 callexx : dft_is_hybrid =  T F

     Only exx_fraction is set to 1.d0
     XC functional still not changed
     Exchange-correlation      = SLA  PZ   NOGX NOGC ( 0  0  0  0 0 0)
     EXX-fraction              =        1.00
EXX: grid of k+q points same as grid of k-points
 callexx 2: dft_is_hybrid =  T F
     + Fock energy             =      -0.68034382 Ry =       -0.68034382 Ry 

 callexx 3: dft_is_hybrid =  T T
 callexx 4: dft_is_hybrid =  T F

     SCF steps #  8

     minimum_total energy      =      -1.92524885 Ry

     The total energy is the sum of the following terms:

     one-electron contribution =      -1.24490503 Ry
     xc contribution           =      -0.68034382 Ry
     exact exchange energy     =      -0.68034382 Ry
     rpa correlation energy    =       0.00000000 Ry
 normalization of error density:           1           1  8.126598933455517E-008
 convergency is approach after           1 steps
 normalization of error density:  8.126598933455517E-008
 gradient_of_energy           9  9.360910493339403E-006

     XC functional enforced to be EXXRPA
     Exchange-correlation      = SLA  PZ   NOGX NOGC ( 0  0  0  0 0 0)
     EXX-fraction              =        1.00
     !!! Any further DFT definition will be discarded
     !!! Please, verify this is what you really want !


   Info: using nr1, nr2, nr3 values from input

   Info: using nr1, nr2, nr3 values from input
     Message from routine kpoint_grid:
     ATTENTION: skip check of k-points equivalence
 
     G-vector sticks info
     --------------------
     sticks:   dense  smooth     PW     G-vecs:    dense   smooth      PW
     Sum        2509    2509    621                94341    94341   11753
 


     bravais-lattice index     =            1
     lattice parameter (alat)  =      15.0000  a.u.
     unit-cell volume          =    3375.0000 (a.u.)^3
     number of atoms/cell      =            1
     number of atomic types    =            1
     number of electrons       =         2.00
     number of Kohn-Sham states=            4
     kinetic-energy cutoff     =      35.0000  Ry
     charge density cutoff     =     140.0000  Ry
     cutoff for Fock operator  =     140.0000  Ry
     Exchange-correlation      = SLA  PZ   NOGX NOGC ( 0  0  0  0 0 0)
     EXX-fraction              =        1.00

     celldm(1)=  15.000000  celldm(2)=   0.000000  celldm(3)=   0.000000
     celldm(4)=   0.000000  celldm(5)=   0.000000  celldm(6)=   0.000000

     crystal axes: (cart. coord. in units of alat)
               a(1) = (   1.000000   0.000000   0.000000 )  
               a(2) = (   0.000000   1.000000   0.000000 )  
               a(3) = (   0.000000   0.000000   1.000000 )  

     reciprocal axes: (cart. coord. in units 2 pi/alat)
               b(1) = (  1.000000  0.000000  0.000000 )  
               b(2) = (  0.000000  1.000000  0.000000 )  
               b(3) = (  0.000000  0.000000  1.000000 )  


     PseudoPot. # 1 for Be read from file:
     ../pseudo/Be.EXX-fhi.UPF
     MD5 check sum: 17e503e2df6aa395e6988bd959d3fa42
     Pseudo is Norm-conserving, Zval =  2.0
     Generated by new atomic code, or converted to UPF format
     Using radial grid of  445 points,  2 beta functions with: 
                l(1) =   0
                l(2) =   1

     atomic species   valence    mass     pseudopotential
        Be             2.00     9.01218     Be( 1.00)

     No symmetry found



   Cartesian axes

     site n.     atom                  positions (alat units)
         1           Be  tau(   1) = (   0.0000000   0.0000000   0.0000000  )

     number of k points=     1
                       cart. coord. in units 2pi/alat
        k(    1) = (   0.0000000   0.0000000   0.0000000), wk =   2.0000000

     Dense  grid:    94341 G-vectors     FFT dimensions: (  60,  60,  60)

     Estimated max dynamical RAM per process >     123.03Mb

     The potential is recalculated from file :
     /scratch/colonna/ACFDT/espresso-6.0/tempdir/Be-1.save/charge-density.dat

     Starting wfc from file

     Band Structure Calculation
     Davidson diagonalization with overlap

     ethr =  2.50E-13,  avg # of iterations =  5.0

     The total energy is the sum of the following terms:

     sum of ks eigenvalues     =      -0.82242029 Ry
     sum of local potentials   =      -0.31169178 Ry
     hartree contribution      =       0.64581814 Ry
     ewald contribution        =      -0.75661271 Ry
     lda (pbe) xc contribution =       0.00000000 Ry

     Etot with lda(pbe) xc     =      -1.24490664 Ry
     Etot with lda without xc  =      -1.24490664 Ry

     total cpu time spent up to now is        2.9 secs

     End of band structure calculation

          k = 0.0000 0.0000 0.0000 ( 11753 PWs)   bands (ev):

    -5.5948  -1.9940  -1.9940  -1.9940

     highest occupied, lowest unoccupied level (ev):    -5.5948   -1.9940

     Writing output data file Be-1.save
 oep convergency:   3.164015102616742E-006 F


ITER # 10 : LOOP OVER EXXRPA POT



     Calculation of q =    0.0000000   0.0000000   0.0000000
 callexx : dft_is_hybrid =  T F

     Only exx_fraction is set to 1.d0
     XC functional still not changed
     Exchange-correlation      = SLA  PZ   NOGX NOGC ( 0  0  0  0 0 0)
     EXX-fraction              =        1.00
EXX: grid of k+q points same as grid of k-points
 callexx 2: dft_is_hybrid =  T F
     + Fock energy             =      -0.68034222 Ry =       -0.68034222 Ry 

 callexx 3: dft_is_hybrid =  T T
 callexx 4: dft_is_hybrid =  T F

     SCF steps #  9

     minimum_total energy      =      -1.92524885 Ry

     The total energy is the sum of the following terms:

     one-electron contribution =      -1.24490664 Ry
     xc contribution           =      -0.68034222 Ry
     exact exchange energy     =      -0.68034222 Ry
     rpa correlation energy    =       0.00000000 Ry
 normalization of error density:           1           1  8.190599312534320E-008
 convergency is approach after           1 steps
 normalization of error density:  8.190599312534320E-008
 gradient_of_energy          10  6.632199850361592E-006

     XC functional enforced to be EXXRPA
     Exchange-correlation      = SLA  PZ   NOGX NOGC ( 0  0  0  0 0 0)
     EXX-fraction              =        1.00
     !!! Any further DFT definition will be discarded
     !!! Please, verify this is what you really want !


   Info: using nr1, nr2, nr3 values from input

   Info: using nr1, nr2, nr3 values from input
     Message from routine kpoint_grid:
     ATTENTION: skip check of k-points equivalence
 
     G-vector sticks info
     --------------------
     sticks:   dense  smooth     PW     G-vecs:    dense   smooth      PW
     Sum        2509    2509    621                94341    94341   11753
 


     bravais-lattice index     =            1
     lattice parameter (alat)  =      15.0000  a.u.
     unit-cell volume          =    3375.0000 (a.u.)^3
     number of atoms/cell      =            1
     number of atomic types    =            1
     number of electrons       =         2.00
     number of Kohn-Sham states=            4
     kinetic-energy cutoff     =      35.0000  Ry
     charge density cutoff     =     140.0000  Ry
     cutoff for Fock operator  =     140.0000  Ry
     Exchange-correlation      = SLA  PZ   NOGX NOGC ( 0  0  0  0 0 0)
     EXX-fraction              =        1.00

     celldm(1)=  15.000000  celldm(2)=   0.000000  celldm(3)=   0.000000
     celldm(4)=   0.000000  celldm(5)=   0.000000  celldm(6)=   0.000000

     crystal axes: (cart. coord. in units of alat)
               a(1) = (   1.000000   0.000000   0.000000 )  
               a(2) = (   0.000000   1.000000   0.000000 )  
               a(3) = (   0.000000   0.000000   1.000000 )  

     reciprocal axes: (cart. coord. in units 2 pi/alat)
               b(1) = (  1.000000  0.000000  0.000000 )  
               b(2) = (  0.000000  1.000000  0.000000 )  
               b(3) = (  0.000000  0.000000  1.000000 )  


     PseudoPot. # 1 for Be read from file:
     ../pseudo/Be.EXX-fhi.UPF
     MD5 check sum: 17e503e2df6aa395e6988bd959d3fa42
     Pseudo is Norm-conserving, Zval =  2.0
     Generated by new atomic code, or converted to UPF format
     Using radial grid of  445 points,  2 beta functions with: 
                l(1) =   0
                l(2) =   1

     atomic species   valence    mass     pseudopotential
        Be             2.00     9.01218     Be( 1.00)

     No symmetry found



   Cartesian axes

     site n.     atom                  positions (alat units)
         1           Be  tau(   1) = (   0.0000000   0.0000000   0.0000000  )

     number of k points=     1
                       cart. coord. in units 2pi/alat
        k(    1) = (   0.0000000   0.0000000   0.0000000), wk =   2.0000000

     Dense  grid:    94341 G-vectors     FFT dimensions: (  60,  60,  60)

     Estimated max dynamical RAM per process >     123.03Mb

     The potential is recalculated from file :
     /scratch/colonna/ACFDT/espresso-6.0/tempdir/Be-1.save/charge-density.dat

     Starting wfc from file

     Band Structure Calculation
     Davidson diagonalization with overlap

     ethr =  2.50E-13,  avg # of iterations =  4.0

     The total energy is the sum of the following terms:

     sum of ks eigenvalues     =      -0.82246106 Ry
     sum of local potentials   =      -0.31165042 Ry
     hartree contribution      =       0.64581682 Ry
     ewald contribution        =      -0.75661271 Ry
     lda (pbe) xc contribution =       0.00000000 Ry

     Etot with lda(pbe) xc     =      -1.24490737 Ry
     Etot with lda without xc  =      -1.24490737 Ry

     total cpu time spent up to now is        3.1 secs

     End of band structure calculation

          k = 0.0000 0.0000 0.0000 ( 11753 PWs)   bands (ev):

    -5.5951  -1.9943  -1.9943  -1.9943

     highest occupied, lowest unoccupied level (ev):    -5.5951   -1.9943

     Writing output data file Be-1.save
 oep convergency:   1.485444922500510E-006 F
 
     PHONON       :     31.13s CPU     31.95s WALL (       1 calls)
     INITIALIZATION: 
     phq_setup    :      0.11s CPU      0.11s WALL (      10 calls)
     phq_init     :      2.12s CPU      2.12s WALL (      10 calls)
 
     phq_init     :      2.12s CPU      2.12s WALL (      10 calls)
     init_vloc    :      0.02s CPU      0.02s WALL (      11 calls)
     init_us_1    :      0.07s CPU      0.07s WALL (      11 calls)
 
 
 
     solve_linter :     20.79s CPU     21.13s WALL (      98 calls)
 
     solve_linter :     20.79s CPU     21.13s WALL (      98 calls)
     ortho        :      0.01s CPU      0.01s WALL (      98 calls)
     cgsolve      :     18.48s CPU     18.59s WALL (      98 calls)
     incdrhoscf   :      0.68s CPU      0.76s WALL (      98 calls)
 
 
     cgsolve      :     18.48s CPU     18.59s WALL (      98 calls)
     ch_psi       :     18.01s CPU     18.19s WALL (    3330 calls)
 
     ch_psi       :     18.01s CPU     18.19s WALL (    3330 calls)
     last         :      0.44s CPU      0.47s WALL (    3330 calls)
 
     add_vuspsi   :      0.16s CPU      0.16s WALL (    3419 calls)
 
     incdrhoscf   :      0.68s CPU      0.76s WALL (      98 calls)
 
 
      General routines
     calbec       :      0.21s CPU      0.25s WALL (    6799 calls)
     fft          :      1.25s CPU      1.30s WALL (     425 calls)
     fftw         :     18.08s CPU     18.25s WALL (    7756 calls)
     davcio       :      0.01s CPU      0.01s WALL (      61 calls)
 
 
     PHONON       :     31.13s CPU     31.95s WALL (       2 calls)
 
   This run was terminated on:  21: 2:22   4Oct2016            

=------------------------------------------------------------------------------=
   JOB DONE.
=------------------------------------------------------------------------------=
